100.00
81.00
98.00
83.00
95.00
98.00
90.00
94.00
87.00
90.00
87.00
98.00
98.00
89.00
94.00
93.00
90.00
100.00
85.00
97.00
85.00
81.00
91.00
82.00
84.00
92.00
95.00
81.00
97.00
87.00
90.00
83.00
97.00
91.00
88.00
85.00
97.00
93.00
90.00
92.00
88.00
99.00
87.00
83.00
98.00
99.00
93.00
88.00
86.00
83.00
85.00
80.00
98.00
99.00
86.00
81.00
96.00
91.00
88.00
83.00